{
  "project_info": {
    "project_number": "752368068071",
    "firebase_url": "https://checktime-e86a9.firebaseio.com",
    "project_id": "checktime-e86a9",
    "storage_bucket": "checktime-e86a9.appspot.com"
  },
  "client": [
    {
      "client_info": {
        "mobilesdk_app_id": "1:752368068071:android:da1addf590cdc169",
        "android_client_info": {
          "package_name": "com.jillstuart.beauty.app"
        }
      },
      "oauth_client": [
        {
          "client_id": "752368068071-0ekubsvlun4vggb78pr38lq1nrg3di13.apps.googleusercontent.com",
          "client_type": 3
        }
      ],
      "api_key": [
        {
          "current_key": "AIzaSyDFSv7sunzJTYR_Z9NdK2QpzgYOcrfsacg"
        }
      ],
      "services": {
        "analytics_service": {
          "status": 1
        },
        "appinvite_service": {
          "status": 1,
          "other_platform_oauth_client": []
        },
        "ads_service": {
          "status": 2
        }
      }
    }
  ],
  "configuration_version": "1"
}